module gitlab.com/codeguy131/scratch-go

go 1.18

require (
	github.com/99designs/gqlgen v0.17.2
	github.com/google/uuid v1.3.0
	github.com/vektah/gqlparser/v2 v2.4.1
	gorm.io/driver/postgres v1.3.4
	gorm.io/gorm v1.23.4
)

require (
	github.com/agnivade/levenshtein v1.1.0 // indirect
	github.com/cpuguy83/go-md2man/v2 v2.0.1 // indirect
	github.com/gorilla/websocket v1.4.2 // indirect
	github.com/hashicorp/golang-lru v0.5.0 // indirect
	github.com/jackc/chunkreader/v2 v2.0.1 // indirect
	github.com/jackc/pgconn v1.11.0 // indirect
	github.com/jackc/pgio v1.0.0 // indirect
	github.com/jackc/pgpassfile v1.0.0 // indirect
	github.com/jackc/pgproto3/v2 v2.2.0 // indirect
	github.com/jackc/pgservicefile v0.0.0-20200714003250-2b9c44734f2b // indirect
	github.com/jackc/pgtype v1.10.0 // indirect
	github.com/jackc/pgx/v4 v4.15.0 // indirect
	github.com/jinzhu/inflection v1.0.0 // indirect
	github.com/jinzhu/now v1.1.4 // indirect
	github.com/matryer/moq v0.2.3 // indirect
	github.com/mitchellh/mapstructure v1.2.3 // indirect
	github.com/russross/blackfriday/v2 v2.1.0 // indirect
	github.com/urfave/cli/v2 v2.3.0 // indirect
	golang.org/x/crypto v0.0.0-20210921155107-089bfa567519 // indirect
	golang.org/x/mod v0.5.1 // indirect
	golang.org/x/sys v0.0.0-20211019181941-9d821ace8654 // indirect
	golang.org/x/text v0.3.7 // indirect
	golang.org/x/tools v0.1.9 // indirect
	golang.org/x/xerrors v0.0.0-20200804184101-5ec99f83aff1 // indirect
	gopkg.in/yaml.v2 v2.2.8 // indirect
)
